^C:\USERS\COUNTERKILL\DOCUMENTS\VISUAL STUDIO 2010\PROJECTS\OPTIMIZATIONMETHODS\OPTIMIZATIONMETHODS\MAIN.CPP
C:\USERS\COUNTERKILL\DOCUMENTS\VISUAL STUDIO 2010\PROJECTS\OPTIMIZATIONMETHODS\OPTIMIZATIONMETHODS\DEBUG\VC100.PDB
C:\USERS\COUNTERKILL\DOCUMENTS\VISUAL STUDIO 2010\PROJECTS\OPTIMIZATIONMETHODS\OPTIMIZATIONMETHODS\DEBUG\MAIN.OBJ
